{
    "identifier":  "190401_atestservice_local",

    "core":
    {
        "default":
        {
            "gitlab":
            {
                  "user":                   "klevstul"
                , "personal_access_token":  ""
                , "default_exma_file":      "readme.md"
                , "alternative_exma_file":  "readme.markdown"
                , "default_file_type":      ".md"
                , "api_root":               "https://gitlab.com/api/v4"
                , "api_private_token":      "private_token=:personal_access_token"
                , "api_project":            "/projects/:id"
                , "api_repository_tree":    "/projects/:id/repository/tree?per_page=888"
                , "api_blob_raw":           "/projects/:id/repository/blobs/:sha/raw"
                , "api_file":               "/projects/:id/repository/files/:file_path?ref=master"
                , "api_file_raw":           "/projects/:id/repository/files/:file_path/raw?ref=master"
                , "url_raw":                "https://gitlab.com/:user/:project_name/raw/master/"
                , "src_link_code":          "<p class='gl_src_link'>[<a href='[editor]' target='_blank'>src^</a>|<a href='[raw]' target='_blank'>raw^</a>]<p/>"
                , "src_link_editor_url":    "https://gitlab.com/[project_path]/blob/[ref]/[file_path]"
            }
        }
    }

    ,

    "sources":
    {
          "src.default":                        "http://www.inoreader.com/stream/user/1005611799/tag/atestservice?dt=pub&n=100"
        , "src.fno.default":                    "bundle={http://fnots.blogspot.com/feeds/posts/default/?max-results=5, https://thisworld-is.blogspot.com/feeds/posts/default/-/news?max-results=5}       title={foreneno.com | eng | service | news | blog | ff=1 gts=0 ws=1 pli=0 edd=0 fsf=et.test | 1709231326}"
        , "src.gitlab_atestservice.default":    "gitlab:atestservice    title={frode burdal klevstul | eng | maincat | subcat | gitlab | asc=0 fsf=et.excludeme siz=99 ws=0 | 1812161518}"
    }

    ,

    "huginn":
    {
        "default":
        {
            "analytics":
            {
                  "enabled":        "true"
                , "javascript":     "https://cdn.simpleanalytics.io/hello.js"
                , "noscript_image": "https://api.simpleanalytics.io/hello.gif"
            }
            ,
            "rpc":
            {
                  "index":          "service_id=atestservice&method=list_entries_json&bundle_id=gitlab_atestservice&path=content/index/index.md"
                , "cache":          "false"
                , "service_id":     "atestservice"
            }
            ,
            "commenting":
            {
                  "enabled":        "true"
                , "javascript":     "https://just-comments.com/w2.js"
                , "script_attributes":
                    [
                        "async="
                    ]
                , "div_attributes":
                    [
                          "data-apikey=0f239cfd-19f2-49d8-9b84-fb72f6257491"
                        , "data-usequery=true"
                        , "data-disablesociallogin=true"
                        , "data-disableseo=true"
                    ]
                , "div_class":      "just-comments"
                , "div_id":         ""
                , "request_exclude":
                    [
                          "[index]"
                    ]
                , "request_include":
                    [
                          "*"
                    ]
            }
            ,
            "layout":
            {
                  "_css_content":       "body { background-color: #0000ff; }"
                , "css_file_to_load":   "https://gitlab.com/api/v4/projects/10157947/repository/files/styles%2Fstyles.css/raw?ref=master"
                , "_css_link":          "http://127.0.0.1/huginn/src/app/css/styles.css"
                , "title":              "atestservice"
                , "header":             "a test service"
                , "footer":             "hom &#9881; [version] &#x2692; [datestamp]"
            }
            ,
            "meta":
            {
                  "description":        "a test service for hom"
                , "keywords":           "hom, homis, hom.is"
                , "author":             "snorri sturluson"
            }
            ,
            "miscellaneous":
            {
                  "cdn":    "https://cdn.staticaly.com/gl[path]"
            }
        }
    }


}
